{
  "scope": "A",
  "version": 1,
  "restricted": false,
  "overridable": true,
  "files": [
    "code.py"
  ],
  "attributes": {
    "lastModification": {
      "actor": "external",
      "timestamp": "2021-04-28T20:45:27Z"
    },
    "lastModificationSignature": "5ba4ba01cad4d1fd3311a218f770da7eba2a48cd89b62003e6666143d0f89b5e"
  }
}