{
  "scope": "G",
  "version": 1,
  "restricted": false,
  "overridable": true,
  "files": [
    "view.json",
    "thumbnail.png"
  ],
  "attributes": {
    "lastModification": {
      "actor": "external",
      "timestamp": "2021-04-28T20:45:27Z"
    },
    "lastModificationSignature": "02ca4d77837c40306267cd0c9767d903eb8b447ee878ef376d18c857ca12d29d"
  }
}