{
  "scope": "A",
  "version": 1,
  "restricted": false,
  "overridable": true,
  "files": [
    "code.py"
  ],
  "attributes": {
    "lastModification": {
      "actor": "external",
      "timestamp": "2021-04-28T20:45:27Z"
    },
    "lastModificationSignature": "35c47cd57139dd8caac5c8dc0dbe3e148850af9fc87c1d1a6b1940f3ef2cf54d"
  }
}