{
  "scope": "A",
  "version": 1,
  "restricted": false,
  "overridable": true,
  "files": [
    "code.py"
  ],
  "attributes": {
    "lastModification": {
      "actor": "external",
      "timestamp": "2021-04-28T20:45:27Z"
    },
    "lastModificationSignature": "e13bef714e2d436a250f3f68ccd58818541015ddcc415f9c50f533286de723f2"
  }
}