{
  "scope": "G",
  "version": 1,
  "restricted": false,
  "overridable": true,
  "files": [
    "style.json"
  ],
  "attributes": {
    "lastModification": {
      "actor": "external",
      "timestamp": "2021-04-28T20:45:27Z"
    },
    "lastModificationSignature": "f41691eac08bab9f4b6fe236c88f2175dfd99954b1e8424dbfc4b812b23898e3"
  }
}