{
  "scope": "G",
  "version": 1,
  "restricted": false,
  "overridable": true,
  "files": [
    "view.json",
    "thumbnail.png"
  ],
  "attributes": {
    "lastModification": {
      "actor": "external",
      "timestamp": "2021-04-28T20:45:27Z"
    },
    "lastModificationSignature": "f45309840e9c549bef8404dbb68f48aca6bcad5a470e02eb5d106fef97ab987b"
  }
}