{
  "scope": "G",
  "version": 1,
  "restricted": false,
  "overridable": true,
  "files": [
    "style.json"
  ],
  "attributes": {
    "lastModification": {
      "actor": "external",
      "timestamp": "2021-04-28T20:45:27Z"
    },
    "lastModificationSignature": "fa3fa6d855837a161976632ccb47b3c12c82c0ea93ae4e4128d89d83fa7ee40b"
  }
}