{
  "custom": {},
  "params": {},
  "props": {
    "defaultSize": {
      "height": 60
    }
  },
  "root": {
    "children": [
      {
        "events": {
          "dom": {
            "onClick": {
              "config": {
                "id": "menu",
                "type": "toggle"
              },
              "scope": "C",
              "type": "dock"
            },
            "onTouchEnd": {
              "config": {
                "id": "menu",
                "type": "toggle"
              },
              "enabled": false,
              "scope": "C",
              "type": "dock"
            }
          }
        },
        "meta": {
          "name": "MenuDock"
        },
        "position": {
          "basis": "55px",
          "shrink": 0
        },
        "props": {
          "color": "#666666",
          "path": "material/menu",
          "style": {
            "classes": "",
            "marginBottom": 4,
            "marginLeft": 4,
            "marginTop": 4
          }
        },
        "type": "ia.display.icon"
      },
      {
        "events": {
          "dom": {
            "onClick": {
              "config": {
                "page": "/"
              },
              "scope": "C",
              "type": "nav"
            },
            "onTouchEnd": {
              "config": {
                "page": "/"
              },
              "scope": "C",
              "type": "nav"
            }
          }
        },
        "meta": {
          "name": "Live Factory - Web (Grey)"
        },
        "position": {
          "basis": "286.15px"
        },
        "props": {
          "fit": {
            "height": 40,
            "mode": "contain",
            "width": 286.15
          },
          "source": "/system/images/LiveFactory/Global/LiveFactory/Global/Live Factory - Web (Grey).svg",
          "style": {
            "marginBottom": 10,
            "marginTop": 5
          }
        },
        "type": "ia.display.image"
      },
      {
        "meta": {
          "name": "FlexContainer"
        },
        "position": {
          "basis": "55px",
          "shrink": 100
        },
        "type": "ia.container.flex"
      }
    ],
    "meta": {
      "name": "root"
    },
    "props": {
      "justify": "space-between",
      "style": {
        "classes": "Page/Standard_Dark",
        "overflow": "hidden"
      }
    },
    "type": "ia.container.flex"
  }
}