{
  "scope": "G",
  "version": 1,
  "restricted": false,
  "overridable": true,
  "files": [
    "view.json",
    "thumbnail.png"
  ],
  "attributes": {
    "lastModification": {
      "actor": "external",
      "timestamp": "2021-04-28T20:45:27Z"
    },
    "lastModificationSignature": "346825d742c6a6d6019e6acb27f72ce6f3b1840766e9cfcbcb8dceaad3c16599"
  }
}