{
  "scope": "A",
  "version": 1,
  "restricted": false,
  "overridable": true,
  "files": [
    "code.py"
  ],
  "attributes": {
    "lastModification": {
      "actor": "external",
      "timestamp": "2021-04-28T20:45:27Z"
    },
    "lastModificationSignature": "5b2fda9d36683ba5c73e79edcac68ceb905ada73de6b19a15827cf572a5f78e1"
  }
}