{
  "scope": "A",
  "version": 1,
  "restricted": false,
  "overridable": true,
  "files": [
    "code.py"
  ],
  "attributes": {
    "lastModification": {
      "actor": "external",
      "timestamp": "2021-04-28T20:45:27Z"
    },
    "lastModificationSignature": "1cd1a6c6c803483e96e9e719d2cc1be5fb929b588e3649cf281bbdd22bd04699"
  }
}