{
  "scope": "A",
  "version": 1,
  "restricted": false,
  "overridable": true,
  "files": [
    "code.py"
  ],
  "attributes": {
    "lastModification": {
      "actor": "external",
      "timestamp": "2021-04-28T20:45:27Z"
    },
    "lastModificationSignature": "7ede5cd327d175f9e91f1ca3cfae9b4fa8c465d838f2cdeabbc7a4f9cc67b0c5"
  }
}