{
  "custom": {},
  "params": {},
  "props": {},
  "root": {
    "children": [
      {
        "children": [
          {
            "meta": {
              "name": "PartSelect"
            },
            "position": {
              "basis": "36px",
              "grow": 1
            },
            "props": {
              "options": [
                {
                  "label": "1B3XHV",
                  "value": "01"
                },
                {
                  "label": "1B6X04",
                  "value": "02"
                },
                {
                  "label": "!b6X05",
                  "value": "03"
                }
              ],
              "placeholder": {
                "text": "Select Part No"
              },
              "style": {
                "fontFamily": "Segoe UI",
                "fontSize": "14pt",
                "marginBottom": "25px",
                "marginLeft": "45px",
                "marginRight": "45px",
                "marginTop": "25px"
              },
              "value": "01"
            },
            "type": "ia.input.dropdown"
          }
        ],
        "meta": {
          "name": "FlexContainer"
        },
        "position": {
          "basis": "100px",
          "display": false,
          "shrink": 0
        },
        "props": {
          "style": {
            "backgroundColor": "#555555"
          }
        },
        "type": "ia.container.flex"
      },
      {
        "children": [
          {
            "events": {
              "component": {
                "onRowDoubleClick": {
                  "config": {
                    "draggable": true,
                    "id": "E/K6y5PO",
                    "modal": false,
                    "overlayDismiss": false,
                    "resizable": true,
                    "showCloseIcon": true,
                    "type": "open",
                    "viewPath": "CharacteristicViewer",
                    "viewportBound": false
                  },
                  "scope": "C",
                  "type": "popup"
                }
              }
            },
            "meta": {
              "name": "Table"
            },
            "position": {
              "basis": "400px"
            },
            "props": {
              "data": [
                {
                  "Characteristic": "SPC 1"
                },
                {
                  "Characteristic": "SPC 2"
                },
                {
                  "Characteristic": "Width"
                }
              ],
              "filter": {
                "enabled": true
              },
              "pager": {
                "bottom": false
              },
              "selection": {
                "data": [
                  {
                    "Characteristic": "Width"
                  }
                ],
                "selectedColumn": "Characteristic",
                "selectedRow": 2
              },
              "style": {
                "fontFamily": "Segoe UI",
                "fontSize": "14pt",
                "marginBottom": "25px",
                "marginLeft": "15px",
                "marginRight": "15px",
                "marginTop": "25px"
              }
            },
            "type": "ia.display.table"
          },
          {
            "children": [
              {
                "meta": {
                  "name": "Reverse"
                },
                "position": {
                  "basis": "50px",
                  "shrink": 0
                },
                "props": {
                  "color": "#FF8A8A",
                  "path": "material/fast_rewind",
                  "style": {
                    "marginBottom": "55px",
                    "marginTop": "55px"
                  }
                },
                "type": "ia.display.icon"
              },
              {
                "events": {
                  "dom": {
                    "onDoubleClick": {
                      "config": {
                        "script": "\t\n\tself.parent.parent.getChild(\"ActiveChars\").props.data \u003d self.parent.parent.getChild(\"ActiveChars\").props.data.append(self.parent.parent.getChild(\"Table\").props.selection.data[0])"
                      },
                      "scope": "G",
                      "type": "script"
                    }
                  }
                },
                "meta": {
                  "name": "Forward"
                },
                "position": {
                  "basis": "50px",
                  "shrink": 0
                },
                "props": {
                  "color": "#00D900",
                  "path": "material/fast_forward",
                  "style": {
                    "marginBottom": "55px",
                    "marginTop": "55px"
                  }
                },
                "type": "ia.display.icon"
              }
            ],
            "meta": {
              "name": "Move"
            },
            "position": {
              "basis": "50px",
              "grow": 1
            },
            "props": {
              "direction": "column",
              "justify": "center"
            },
            "type": "ia.container.flex"
          },
          {
            "meta": {
              "name": "ActiveChars"
            },
            "position": {
              "basis": "400px"
            },
            "props": {
              "data": null,
              "filter": {
                "enabled": true
              },
              "pager": {
                "bottom": false
              },
              "style": {
                "fontFamily": "Segoe UI",
                "fontSize": "14pt",
                "marginBottom": "25px",
                "marginLeft": "15px",
                "marginRight": "15px",
                "marginTop": "25px"
              }
            },
            "type": "ia.display.table"
          }
        ],
        "meta": {
          "name": "Tables"
        },
        "position": {
          "basis": "200px",
          "grow": 1
        },
        "props": {
          "style": {
            "backgroundColor": "#555555"
          }
        },
        "type": "ia.container.flex"
      },
      {
        "events": {
          "component": {
            "onActionPerformed": {
              "config": {
                "draggable": true,
                "id": "NpthD7bd",
                "modal": false,
                "overlayDismiss": false,
                "resizable": true,
                "showCloseIcon": true,
                "type": "open",
                "viewPath": "CharacteristicViewer",
                "viewportBound": false
              },
              "scope": "C",
              "type": "popup"
            }
          }
        },
        "meta": {
          "name": "Create New"
        },
        "position": {
          "basis": "80px"
        },
        "props": {
          "style": {
            "borderBottomLeftRadius": 15,
            "borderBottomRightRadius": 15,
            "borderStyle": "none",
            "borderTopLeftRadius": 15,
            "borderTopRightRadius": 15,
            "fontFamily": "Segoe UI",
            "fontSize": "14pt",
            "marginBottom": "15px",
            "marginLeft": "45px",
            "marginRight": "45px",
            "marginTop": "15px"
          },
          "text": "Create New"
        },
        "type": "ia.input.button"
      }
    ],
    "meta": {
      "name": "root"
    },
    "props": {
      "direction": "column",
      "style": {
        "backgroundColor": "#555555"
      }
    },
    "type": "ia.container.flex"
  }
}