{
  "scope": "C",
  "version": 2,
  "restricted": false,
  "overridable": true,
  "files": [
    "template.bin"
  ],
  "attributes": {
    "lastModification": {
      "actor": "agani5",
      "timestamp": "2021-04-16T13:05:29Z"
    },
    "lastModificationSignature": "1319d961fe2701c3287f92d08749e585dc0de7943ad6fc2db2bdb4b67158eeba"
  }
}